\headcommand {\slideentry {0}{0}{1}{1/1}{}{0}}
\headcommand {\beamer@framepages {1}{1}}
\headcommand {\slideentry {0}{0}{2}{2/2}{}{0}}
\headcommand {\beamer@framepages {2}{2}}
\headcommand {\beamer@sectionpages {1}{2}}
\headcommand {\beamer@subsectionpages {1}{2}}
\headcommand {\sectionentry {1}{Introduction}{3}{Introduction}{0}}
\headcommand {\slideentry {1}{0}{1}{3/3}{}{0}}
\headcommand {\beamer@framepages {3}{3}}
\headcommand {\slideentry {1}{0}{2}{4/4}{}{0}}
\headcommand {\beamer@framepages {4}{4}}
\headcommand {\slideentry {1}{0}{3}{5/5}{}{0}}
\headcommand {\beamer@framepages {5}{5}}
\headcommand {\slideentry {1}{0}{4}{6/6}{}{0}}
\headcommand {\beamer@framepages {6}{6}}
\headcommand {\slideentry {1}{0}{5}{7/7}{}{0}}
\headcommand {\beamer@framepages {7}{7}}
\headcommand {\slideentry {1}{0}{6}{8/9}{}{0}}
\headcommand {\beamer@framepages {8}{9}}
\headcommand {\slideentry {1}{0}{7}{10/10}{}{0}}
\headcommand {\beamer@framepages {10}{10}}
\headcommand {\slideentry {1}{0}{8}{11/11}{}{0}}
\headcommand {\beamer@framepages {11}{11}}
\headcommand {\slideentry {1}{0}{9}{12/12}{}{0}}
\headcommand {\beamer@framepages {12}{12}}
\headcommand {\beamer@sectionpages {3}{12}}
\headcommand {\beamer@subsectionpages {3}{12}}
\headcommand {\sectionentry {2}{Ensuring program execution integrity}{13}{Ensuring program execution integrity}{0}}
\headcommand {\slideentry {2}{0}{1}{13/13}{}{0}}
\headcommand {\beamer@framepages {13}{13}}
\headcommand {\slideentry {2}{0}{2}{14/14}{}{0}}
\headcommand {\beamer@framepages {14}{14}}
\headcommand {\slideentry {2}{0}{3}{15/15}{}{0}}
\headcommand {\beamer@framepages {15}{15}}
\headcommand {\slideentry {2}{0}{4}{16/16}{}{0}}
\headcommand {\beamer@framepages {16}{16}}
\headcommand {\slideentry {2}{0}{5}{17/17}{}{0}}
\headcommand {\beamer@framepages {17}{17}}
\headcommand {\slideentry {2}{0}{6}{18/19}{}{0}}
\headcommand {\beamer@framepages {18}{19}}
\headcommand {\slideentry {2}{0}{7}{20/22}{}{0}}
\headcommand {\beamer@framepages {20}{22}}
\headcommand {\slideentry {2}{0}{8}{23/23}{}{0}}
\headcommand {\beamer@framepages {23}{23}}
\headcommand {\slideentry {2}{0}{9}{24/25}{}{0}}
\headcommand {\beamer@framepages {24}{25}}
\headcommand {\slideentry {2}{0}{10}{26/26}{}{0}}
\headcommand {\beamer@framepages {26}{26}}
\headcommand {\slideentry {2}{0}{11}{27/27}{}{0}}
\headcommand {\beamer@framepages {27}{27}}
\headcommand {\slideentry {2}{0}{12}{28/28}{}{0}}
\headcommand {\beamer@framepages {28}{28}}
\headcommand {\slideentry {2}{0}{13}{29/29}{}{0}}
\headcommand {\beamer@framepages {29}{29}}
\headcommand {\beamer@sectionpages {13}{29}}
\headcommand {\beamer@subsectionpages {13}{29}}
\headcommand {\sectionentry {3}{Conclusion}{30}{Conclusion}{0}}
\headcommand {\slideentry {3}{0}{1}{30/30}{}{0}}
\headcommand {\beamer@framepages {30}{30}}
\headcommand {\slideentry {3}{0}{2}{31/31}{}{0}}
\headcommand {\beamer@framepages {31}{31}}
\headcommand {\slideentry {3}{0}{3}{32/32}{}{0}}
\headcommand {\beamer@framepages {32}{32}}
\headcommand {\slideentry {3}{0}{4}{33/33}{}{0}}
\headcommand {\beamer@framepages {33}{33}}
\headcommand {\slideentry {3}{0}{5}{34/34}{}{0}}
\headcommand {\beamer@framepages {34}{34}}
\headcommand {\beamer@partpages {1}{34}}
\headcommand {\beamer@subsectionpages {30}{34}}
\headcommand {\beamer@sectionpages {30}{34}}
\headcommand {\beamer@documentpages {34}}
\headcommand {\gdef \inserttotalframenumber {29}}
